[4mRunning "clean:dist" (clean) task[24m
Cleaning .tmp...[32mOK[39m
Cleaning public/.htaccess...[32mOK[39m
Cleaning public/404.html...[32mOK[39m
Cleaning public/favicon.ico...[32mOK[39m
Cleaning public/fonts...[32mOK[39m
Cleaning public/images...[32mOK[39m
Cleaning public/index.html...[32mOK[39m
Cleaning public/robots.txt...[32mOK[39m
Cleaning public/scripts...[32mOK[39m
Cleaning public/styles...[32mOK[39m
Cleaning public/views...[32mOK[39m

[4mRunning "wiredep:app" (wiredep) task[24m

[4mRunning "useminPrepare:html" (useminPrepare) task[24m
Configuration changed for [36mconcat[39m, [36muglify[39m, [36mcssmin[39m

[4mRunning "concurrent:dist" (concurrent) task[24m
    
[4mRunning "copy:styles" (copy) task[24m
Copied [36m16[39m files

[32mDone, without errors.[39m


Execution Time (2015-03-16 12:07:00 UTC)
loading tasks    6ms  ■ 1%
copy:styles    471ms  ■■■■■■■■■■■■■■■■■■■■■■■■■■■■■■■■■■■■■■■■■■■■■■■ 99%
Total 477ms
    
[4mRunning "svgmin:dist" (svgmin) task[24m
Total saved: 0 B

[32mDone, without errors.[39m


Execution Time (2015-03-16 12:07:00 UTC)
svgmin:dist  1.2s  ■■■■■■■■■■■■■■■■■■■■■■■■■■■■■■■■■■■■■■■■■■■■■■■■■ 100%
Total 1.2s
    
[4mRunning "imagemin:dist" (imagemin) task[24m
✔ app/images/front/arrow-bt-ri-hover.png (saved 853 B - 88%)
✔ app/images/front/Untitled-1.jpg (saved 835 B - 22%)
✔ app/images/DNG6&7_NDDK_MuaSam.jpg (saved 920 B - 0%)
✔ app/images/front/ajax-loader-lar.gif (saved 310.29 kB - 94%)
✔ app/images/front/arrow-bt-ri.png (saved 849 B - 91%)
✔ app/images/front/arrow-language.png (saved 882 B - 90%)
✔ app/images/front/arrow-menu-hover.png (saved 862 B - 88%)
✔ app/images/front/arrow-menu.png (saved 849 B - 88%)
✔ app/images/front/bdlr-bg.png (saved 849 B - 90%)
✔ app/images/front/bdl-bg.png (saved 849 B - 92%)
✔ app/images/front/bdr-bg.png (saved 849 B - 91%)
✔ app/images/front/bg-ads.png (saved 849 B - 91%)
✔ app/images/front/bg-arrow-tg.jpg (saved 839 B - 58%)
✔ app/images/front/bg-dot-01.jpg (saved 934 B - 77%)
✔ app/images/front/bg-dot-02.png (saved 945 B - 92%)
✔ app/images/front/bg-boxshadown.png (saved 851 B - 45%)
✔ app/images/front/bg-like.png (saved 849 B - 91%)
✔ app/images/front/bg-feedback.png (saved 2.56 kB - 52%)
✔ app/images/front/bg-opacity-01.png (saved 849 B - 85%)
✔ app/images/front/bg-score.png (saved 849 B - 91%)
✔ app/images/front/bg-sear.png (saved 849 B - 76%)
✔ app/images/front/bg-overlay.png (saved 987 B - 50%)
✔ app/images/front/bg-tab.png (saved 856 B - 91%)
✔ app/images/front/bt-nav.png (saved 902 B - 70%)
✔ app/images/front/controls.png (saved 2.06 kB - 56%)
✔ app/images/front/edit-icon.png (saved 933 B - 80%)
✔ app/images/front/flag_united_kingdom.png (saved 862 B - 52%)
✔ app/images/front/flag_vietnam.png (saved 849 B - 74%)
✔ app/images/front/icoin-desc.png (saved 849 B - 91%)
✔ app/images/front/icon-atm.png (saved 1.18 kB - 46%)
✔ app/images/front/icon-attractions.png (saved 1.26 kB - 45%)
✔ app/images/front/bg-sprite-map.png (saved 2.36 kB - 14%)
✔ app/images/front/icon-bar-pub.png (saved 1.12 kB - 48%)
✔ app/images/front/icon-breakcum.png (saved 849 B - 91%)
✔ app/images/front/icon-bus.png (saved 1.1 kB - 41%)
✔ app/images/front/icon-cafe.png (saved 1.3 kB - 46%)
✔ app/images/front/icon-cuisine.png (saved 1.11 kB - 46%)
✔ app/images/front/icon-diagram.png (saved 1.35 kB - 67%)
✔ app/images/front/icon-education.png (saved 1.31 kB - 49%)
✔ app/images/front/icon-finance.png (saved 1.11 kB - 48%)
✔ app/images/front/icon-gas-station.png (saved 1.06 kB - 44%)
✔ app/images/front/icon-health.png (saved 1.2 kB - 47%)
✔ app/images/front/icon-home.png (saved 1.15 kB - 66%)
✔ app/images/front/bg-location.png (saved 9 kB - 3%)
✔ app/images/front/icon-hotel.png (saved 1.22 kB - 47%)
✔ app/images/front/icon-lock.png (saved 919 B - 76%)
✔ app/images/front/icon-login.png (saved 860 B - 83%)
✔ app/images/front/icon-organize.png (saved 995 B - 47%)
✔ app/images/front/icon-relax.png (saved 1.21 kB - 47%)
✔ app/images/front/icon-restaurent.png (saved 1.03 kB - 45%)
✔ app/images/front/icon-search.png (saved 903 B - 76%)
✔ app/images/front/icon-salon.png (saved 1.31 kB - 48%)
✔ app/images/front/icon-service.png (saved 1.17 kB - 43%)
✔ app/images/front/icon-shopping.png (saved 1.25 kB - 49%)
✔ app/images/front/icon-sport.png (saved 1.27 kB - 46%)
✔ app/images/front/icon-travel.png (saved 1.02 kB - 44%)
✔ app/images/front/img-menu.jpg (saved 864 B - 2%)
✔ app/images/front/icon-user.png (saved 919 B - 72%)
✔ app/images/front/minimal.png (already optimized)
✔ app/images/front/logo_login.png (saved 1.38 kB - 9%)
✔ app/images/front/logo.png (saved 4.4 kB - 57%)
✔ app/images/front/minimal@2x.png (already optimized)
✔ app/images/front/weather.png (saved 1.04 kB - 83%)
✔ app/images/front/social.png (saved 3.44 kB - 45%)
✔ app/images/gallery/img-album-0.jpg (saved 827 B - 0%)
✔ app/images/gallery/img-album-1.jpg (saved 938 B - 20%)
✔ app/images/gallery/img-tb-1.jpg (saved 938 B - 20%)
✔ app/images/gallery/img-lar-1.jpg (saved 827 B - 0%)
✔ app/images/gallery/img-tb-2.jpg (saved 934 B - 24%)
✔ app/images/gallery/img-tb-3.jpg (saved 941 B - 28%)
✔ app/images/gallery/img-tb-4.jpg (saved 934 B - 18%)
✔ app/images/gallery/img-tb-5.jpg (saved 938 B - 18%)
✔ app/images/gallery/img-tb-6.jpg (saved 937 B - 18%)
✔ app/images/gallery/img-tb-7.jpg (saved 933 B - 26%)
✔ app/images/gallery/img-tb-8.jpg (saved 935 B - 20%)
✔ app/images/glyphicons-halflings-white.png (already optimized)
✔ app/images/images/ad-01.jpg (saved 938 B - 6%)
✔ app/images/glyphicons-halflings.png (saved 37 B - 0%)
✔ app/images/images/ad-03.jpg (saved 945 B - 3%)
✔ app/images/images/ad-02.jpg (saved 944 B - 3%)
✔ app/images/images/ad-04.jpg (saved 927 B - 4%)
✔ app/images/images/ad-05.jpg (saved 939 B - 4%)
✔ app/images/images/article-01.jpg (saved 928 B - 9%)
✔ app/images/images/article-02.jpg (saved 939 B - 15%)
✔ app/images/images/article-03.jpg (saved 932 B - 16%)
✔ app/images/images/article-05.jpg (saved 924 B - 11%)
✔ app/images/images/article-04.jpg (saved 942 B - 4%)
✔ app/images/images/article-06.jpg (saved 930 B - 21%)
✔ app/images/images/article-07.jpg (saved 923 B - 1%)
✔ app/images/images/article-detail-01.jpg (saved 913 B - 1%)
✔ app/images/images/article-detail-02.jpg (saved 950 B - 1%)
✔ app/images/images/avatar-01.jpg (saved 346 B - 16%)
✔ app/images/images/avatar-02.jpg (saved 338 B - 17%)
✔ app/images/images/avatar-03.jpg (saved 836 B - 25%)
✔ app/images/images/avatar-hd.jpg (saved 934 B - 48%)
✔ app/images/images/avatar-profile.jpg (saved 934 B - 39%)
✔ app/images/images/avatar=default.jpg (saved 934 B - 39%)
✔ app/images/images/img-_39.jpg (saved 934 B - 43%)
✔ app/images/images/img-_44.jpg (saved 931 B - 43%)
✔ app/images/images/img-_46.jpg (saved 931 B - 41%)
✔ app/images/images/img-_48.jpg (saved 934 B - 41%)
✔ app/images/images/img-ab-1.jpg (saved 949 B - 2%)
✔ app/images/images/img-ab-2.jpg (saved 955 B - 1%)
✔ app/images/images/img-ab-3.jpg (saved 903 B - 1%)
✔ app/images/images/img-ab-4.jpg (saved 884 B - 1%)
✔ app/images/images/img-ab-5.jpg (saved 909 B - 1%)
✔ app/images/images/img-ab-6.jpg (saved 941 B - 1%)
✔ app/images/images/img-ads.jpg (saved 843 B - 26%)
✔ app/images/images/img-advertising-1.jpg (saved 861 B - 2%)
✔ app/images/images/img-advertising-2.jpg (saved 818 B - 5%)
✔ app/images/images/img-avatar-1.jpg (saved 842 B - 23%)
✔ app/images/images/img-advertising-3.jpg (saved 837 B - 22%)
✔ app/images/images/img-avatar-2.jpg (saved 841 B - 23%)
✔ app/images/images/img-avatar.jpg (saved 838 B - 58%)
✔ app/images/images/img-booking.jpg (saved 953 B - 6%)
✔ app/images/images/img-comment.jpg (saved 843 B - 6%)
✔ app/images/images/img-event-by.jpg (saved 843 B - 5%)
✔ app/images/images/img-face.jpg (saved 833 B - 21%)
✔ app/images/images/img-folo-2.jpg (saved 957 B - 6%)
✔ app/images/images/img-folo-1.jpg (saved 930 B - 2%)
✔ app/images/images/img-folo-3.jpg (saved 946 B - 5%)
✔ app/images/images/img-folo-4.jpg (saved 938 B - 5%)
✔ app/images/images/img-folo-5.jpg (saved 939 B - 5%)
✔ app/images/images/img-gr.jpg (saved 953 B - 5%)
✔ app/images/images/img-jcar-1.jpg (saved 960 B - 6%)
✔ app/images/images/img-intro.jpg (saved 827 B - 0%)
✔ app/images/images/img-jcar-3.jpg (saved 944 B - 7%)
✔ app/images/images/img-jcar-2.jpg (saved 947 B - 4%)
✔ app/images/images/img-jcar-4.jpg (saved 948 B - 3%)
✔ app/images/images/img-jcar-5.jpg (saved 929 B - 8%)
✔ app/images/images/img-jcar-6.jpg (saved 937 B - 9%)
✔ app/images/images/img-jcar-8.jpg (saved 934 B - 8%)
✔ app/images/images/img-jcar-7.jpg (saved 927 B - 9%)
✔ app/images/images/img-km-1.jpg (saved 936 B - 23%)
✔ app/images/images/img-jcar-9.jpg (saved 943 B - 7%)
✔ app/images/images/img-km-2.jpg (saved 929 B - 21%)
✔ app/images/images/img-km-3.jpg (saved 927 B - 21%)
✔ app/images/images/img-km-4.jpg (saved 926 B - 20%)
✔ app/images/images/img-km-5.jpg (saved 931 B - 25%)
✔ app/images/images/img-km.jpg (saved 936 B - 4%)
✔ app/images/images/img-kmlt.jpg (saved 943 B - 3%)
✔ app/images/images/img-lager-01.jpg (saved 716 B - 2%)
✔ app/images/front/sprite.png (saved 7.74 kB - 11%)
✔ app/images/images/img-lager-02.jpg (saved 1.15 kB - 2%)
✔ app/images/images/img-lager-05.jpg (saved 1.84 kB - 3%)
✔ app/images/images/img-lager-06.jpg (saved 872 B - 1%)
✔ app/images/images/img-lager-03.jpg (saved 45.84 kB - 6%)
✔ app/images/images/img-lager-04.jpg (saved 29.76 kB - 5%)
✔ app/images/images/img-location.jpg (saved 836 B - 25%)
✔ app/images/images/img-lst-1.jpg (saved 934 B - 6%)
✔ app/images/images/img-lst-2.jpg (saved 943 B - 6%)
✔ app/images/images/img-lg-google.png (saved 2.29 kB - 62%)
✔ app/images/images/img-lst-3.jpg (saved 840 B - 5%)
✔ app/images/images/img-lst-dn-2.jpg (saved 922 B - 8%)
✔ app/images/images/img-lst-dn-1.jpg (saved 941 B - 5%)
✔ app/images/images/img-lst-dn-3.jpg (saved 926 B - 5%)
✔ app/images/images/img-lst-dn-4.jpg (saved 935 B - 6%)
✔ app/images/images/img-lst-dn-5.jpg (saved 918 B - 4%)
✔ app/images/images/img-menu.jpg (saved 864 B - 2%)
✔ app/images/images/img-lt.jpg (saved 838 B - 32%)
✔ app/images/images/img-map.jpg (saved 944 B - 5%)
✔ app/images/images/img-new-01.jpg (saved 957 B - 5%)
✔ app/images/images/img-new-02.jpg (saved 938 B - 7%)
✔ app/images/images/img-new-03.jpg (saved 943 B - 12%)
✔ app/images/images/img-new-aside.jpg (saved 836 B - 43%)
✔ app/images/images/img-news-1.jpg (saved 937 B - 28%)
✔ app/images/images/img-news-4.jpg (saved 933 B - 25%)
✔ app/images/images/img-news-3.jpg (saved 931 B - 22%)
✔ app/images/images/img-news-2.jpg (saved 941 B - 23%)
✔ app/images/images/img-news-69x48-01.jpg (saved 933 B - 25%)
✔ app/images/images/img-news-69x48-03.jpg (saved 937 B - 24%)
✔ app/images/images/img-news-69x48-02.jpg (saved 932 B - 26%)
✔ app/images/images/img-news-69x48-04.jpg (saved 935 B - 27%)
✔ app/images/images/img-news-69x48-05.jpg (saved 935 B - 29%)
✔ app/images/images/img-news-hot.jpg (saved 841 B - 3%)
✔ app/images/images/img-news-hot-02.jpg (saved 957 B - 2%)
✔ app/images/images/img-news-st-02.jpg (saved 928 B - 6%)
✔ app/images/images/img-news-st-01.jpg (saved 945 B - 7%)
✔ app/images/images/img-news-st-03.jpg (saved 925 B - 7%)
✔ app/images/images/img-overview.jpg (saved 864 B - 2%)
✔ app/images/images/img-offer.jpg (saved 843 B - 5%)
✔ app/images/images/img-pp-slider.jpg (saved 843 B - 5%)
✔ app/images/images/img-qcl.jpg (saved 854 B - 2%)
✔ app/images/images/img-reply.jpg (saved 839 B - 22%)
✔ app/images/images/img-qcr.jpg (saved 855 B - 2%)
✔ app/images/images/img-sea.jpg (saved 841 B - 13%)
✔ app/images/images/img-service.jpg (saved 838 B - 32%)
✔ app/images/images/img-share-1.jpg (saved 948 B - 7%)
✔ app/images/images/img-share-2.jpg (saved 842 B - 5%)
✔ app/images/images/img-share.jpg (saved 836 B - 38%)
✔ app/images/images/img-share-3.jpg (saved 851 B - 6%)
✔ app/images/images/img-shopping-1.jpg (saved 954 B - 3%)
✔ app/images/images/img-shopping-2.jpg (saved 958 B - 4%)
✔ app/images/images/img-shopping-3.jpg (saved 925 B - 4%)
✔ app/images/images/img-shopping-4.jpg (saved 934 B - 3%)
✔ app/images/images/img-shopping-6.jpg (saved 916 B - 3%)
✔ app/images/images/img-shopping-5.jpg (saved 953 B - 3%)
✔ app/images/images/img-shopping-7.jpg (saved 922 B - 4%)
✔ app/images/images/img-shopping-8.jpg (saved 942 B - 5%)
✔ app/images/images/img-shopping-9.jpg (saved 936 B - 5%)
✔ app/images/images/img-social.jpg (saved 833 B - 15%)
✔ app/images/images/img-shopping.jpg (saved 879 B - 0%)
✔ app/images/images/img-tab-1.jpg (saved 843 B - 4%)
✔ app/images/images/img-tab-2.jpg (saved 850 B - 3%)
✔ app/images/images/img-tb-1.jpg (saved 841 B - 15%)
✔ app/images/images/img-tab-3.jpg (saved 827 B - 4%)
✔ app/images/images/img-tb-3.jpg (saved 849 B - 11%)
✔ app/images/images/img-tb-2.jpg (saved 836 B - 11%)
✔ app/images/images/img-tbfo-1.jpg (saved 936 B - 21%)
✔ app/images/images/img-tbfo-4.jpg (saved 933 B - 23%)
✔ app/images/images/img-tbfo-3.jpg (saved 939 B - 22%)
✔ app/images/images/img-tbfo-5.jpg (saved 933 B - 19%)
✔ app/images/images/img-tbfo-2.jpg (saved 938 B - 17%)
✔ app/images/images/img-tbfo-6.jpg (saved 930 B - 18%)
✔ app/images/images/img-thumb-02.jpg (saved 847 B - 20%)
✔ app/images/images/img-thumb-01.jpg (saved 843 B - 22%)
✔ app/images/images/img-thumb-03.jpg (saved 837 B - 24%)
✔ app/images/images/img-thumb-04.jpg (saved 840 B - 24%)
✔ app/images/images/img-thumb-05.jpg (saved 841 B - 22%)
✔ app/images/images/img-thumb-06.jpg (saved 840 B - 19%)
✔ app/images/images/img-thumb-1.jpg (saved 929 B - 4%)
✔ app/images/images/img-thumb-2.jpg (saved 937 B - 3%)
✔ app/images/images/img-thumb-3.jpg (saved 938 B - 4%)
✔ app/images/images/img-thumb-4.jpg (saved 934 B - 4%)
✔ app/images/images/img-thumb-5.jpg (saved 933 B - 5%)
✔ app/images/images/img-thumb-6.jpg (saved 958 B - 4%)
✔ app/images/images/img-thumb-7.jpg (saved 942 B - 5%)
✔ app/images/images/img-thumb-8.jpg (saved 932 B - 5%)
✔ app/images/images/img-thumb-9.jpg (saved 928 B - 5%)
✔ app/images/images/img-up-1.jpg (saved 839 B - 12%)
✔ app/images/images/img-tmk.jpg (saved 931 B - 2%)
✔ app/images/images/img-unde.jpg (saved 838 B - 43%)
✔ app/images/images/img-up-2.jpg (saved 838 B - 12%)
✔ app/images/images/img-victoria.jpg (saved 927 B - 3%)
✔ app/images/images/img-video-1.jpg (saved 938 B - 9%)
✔ app/images/images/img-video-2.jpg (saved 942 B - 8%)
✔ app/images/images/img-video-3.jpg (saved 940 B - 10%)
✔ app/images/images/img-video-4.jpg (saved 920 B - 7%)
✔ app/images/images/img-video.jpg (saved 838 B - 53%)
✔ app/images/images/img-video-5.jpg (saved 936 B - 12%)
✔ app/images/images/item-new-1.jpg (saved 935 B - 20%)
✔ app/images/images/item-new-2.jpg (saved 934 B - 19%)
✔ app/images/images/item-new-3.jpg (saved 931 B - 19%)
✔ app/images/images/item-new-4.jpg (saved 931 B - 23%)
✔ app/images/images/login-fae.jpg (saved 933 B - 17%)
✔ app/images/images/login-fae-en.jpg (saved 931 B - 16%)
✔ app/images/images/login-twitter.jpg (saved 939 B - 16%)
✔ app/images/images/thumb-map-01.jpg (saved 941 B - 21%)
✔ app/images/imgUI/ui-bg_flat_0_999999_40x100.png (saved 133 B - 60%)
✔ app/images/imgUI/ui-bg_flat_0_aaaaaa_40x100.png (already optimized)
✔ app/images/imgUI/ui-bg_glass_55_fbf9ee_1x400.png (already optimized)
✔ app/images/imgUI/ui-bg_glass_65_ffffff_1x400.png (already optimized)
✔ app/images/images/map.jpg (saved 913 B - 0%)
✔ app/images/imgUI/ui-bg_glass_75_dadada_1x400.png (already optimized)
✔ app/images/imgUI/ui-bg_glass_75_e6e6e6_1x400.png (already optimized)
✔ app/images/imgUI/ui-bg_glass_75_ffffff_1x400.png (already optimized)
✔ app/images/imgUI/ui-bg_highlight-soft_75_cccccc_1x100.png (already optimized)
✔ app/images/imgUI/ui-bg_inset-soft_95_fef1ec_1x100.png (already optimized)
✔ app/images/imgUI/ui-icons_2e83ff_256x240.png (already optimized)
✔ app/images/imgUI/ui-icons_222222_256x240.png (already optimized)
✔ app/images/imgUI/ui-icons_428bca_256x240.png (saved 279 B - 6%)
✔ app/images/imgUI/ui-icons_454545_256x240.png (already optimized)
✔ app/images/imgUI/ui-icons_555555_256x240.png (saved 2.72 kB - 39%)
✔ app/images/imgUI/ui-icons_888888_256x240.png (already optimized)
✔ app/images/imgUI/ui-icons_999999_256x240.png (saved 2.72 kB - 39%)
✔ app/images/imgUI/ui-icons_cd0a0a_256x240.png (already optimized)
✔ app/images/imgUI/ui-icons_f0ad4e_256x240.png (saved 279 B - 6%)
✔ app/images/sliders/img-sliders-1.jpg (saved 827 B - 0%)
✔ app/images/sliders/img-sliders-2.jpg (saved 1 kB - 1%)
✔ app/images/imgUI/ui-icons_f6cf3b_256x240.png (already optimized)
✔ app/images/imgUI/ui-icons_ffffff_256x240.png (saved 173 B - 4%)
✔ app/images/yeoman.png (saved 5 kB - 37%)
✔ app/images/front/bg-login.png (saved 21.82 kB - 3%)
Minified 273 images (saved 672.32 kB)

[32mDone, without errors.[39m


Execution Time (2015-03-16 12:07:00 UTC)
imagemin:dist  15.3s  ■■■■■■■■■■■■■■■■■■■■■■■■■■■■■■■■■■■■■■■■■■■■■■■ 100%
Total 15.4s

[4mRunning "autoprefixer:dist" (autoprefixer) task[24m
File .tmp/styles/bootstrap-select.css created.
File .tmp/styles/bootstrap.min.css created.
File .tmp/styles/colorbox.css created.
File .tmp/styles/common-map.css created.
File .tmp/styles/common.css created.
File .tmp/styles/dd.css created.
File .tmp/styles/easy-responsive-tabs.css created.
File .tmp/styles/flexslider.css created.
File .tmp/styles/font-awesome.min.css created.
File .tmp/styles/icons-map.css created.
File .tmp/styles/icons.css created.
File .tmp/styles/jquery-ui-1.10.3.custom.css created.
File .tmp/styles/jquery.mCustomScrollbar.css created.
File .tmp/styles/jquery.mmenu.css created.
File .tmp/styles/main.css created.
File .tmp/styles/reset-intervale.css created.

[4mRunning "concat:generated" (concat) task[24m
File .tmp\concat\scripts\vendor.js created.
File .tmp\concat\scripts\scripts.js created.

[4mRunning "ngmin:dist" (ngmin) task[24m
ngminifying [36m.tmp/concat/scripts/scripts.js[39m, [36m.tmp/concat/scripts/vendor.js[39m
[33mWarning: Line 375: Unexpected identifier [4mUsed --force, continuing.[24m[39m

[4mRunning "copy:dist" (copy) task[24m
Copied [36m44[39m files

[4mRunning "cdnify:dist" (cdnify) task[24m
Going through [36mpublic/404.html[39m, [36mpublic/index.html[39m to update script refs
✔ bower_components/angular/angular.js changed to //ajax.googleapis.com/ajax/libs/angularjs/1.2.16/angular.min.js
✔ bower_components/angular-animate/angular-animate.js changed to //ajax.googleapis.com/ajax/libs/angularjs/1.2.16/angular-animate.min.js
✔ bower_components/angular-cookies/angular-cookies.js changed to //ajax.googleapis.com/ajax/libs/angularjs/1.2.16/angular-cookies.min.js
✔ bower_components/angular-resource/angular-resource.js changed to //ajax.googleapis.com/ajax/libs/angularjs/1.2.16/angular-resource.min.js
✔ bower_components/angular-sanitize/angular-sanitize.js changed to //ajax.googleapis.com/ajax/libs/angularjs/1.2.16/angular-sanitize.min.js
✔ bower_components/angular-touch/angular-touch.js changed to //ajax.googleapis.com/ajax/libs/angularjs/1.2.16/angular-touch.min.js
✔ bower_components/angular/angular.js changed to //ajax.googleapis.com/ajax/libs/angularjs/1.2.16/angular.min.js
✔ bower_components/angular-animate/angular-animate.js changed to //ajax.googleapis.com/ajax/libs/angularjs/1.2.16/angular-animate.min.js
✔ bower_components/angular-cookies/angular-cookies.js changed to //ajax.googleapis.com/ajax/libs/angularjs/1.2.16/angular-cookies.min.js
✔ bower_components/angular-resource/angular-resource.js changed to //ajax.googleapis.com/ajax/libs/angularjs/1.2.16/angular-resource.min.js
✔ bower_components/angular-sanitize/angular-sanitize.js changed to //ajax.googleapis.com/ajax/libs/angularjs/1.2.16/angular-sanitize.min.js
✔ bower_components/angular-touch/angular-touch.js changed to //ajax.googleapis.com/ajax/libs/angularjs/1.2.16/angular-touch.min.js

[4mRunning "cssmin:generated" (cssmin) task[24m
File public\styles\vendor.css created: 199.22 kB → 160.61 kB
File public\styles\main.css created: 112.92 kB → 100.46 kB

[4mRunning "uglify:generated" (uglify) task[24m
File public\scripts\vendor.js created: 1.4 MB → 281.55 kB
{ message: 'Unexpected token name «CONSTANT», expected punc «,»',
  filename: '..\\..\\.tmp\\concat\\scripts\\scripts.js',
  line: 375,
  col: 54,
  pos: 111111,
  stack: 'Error\n    at new JS_Parse_Error (E:\\xampp\\htdocs\\nddk\\node_modules\\grunt-contrib-uglify\\node_modules\\uglify-js\\lib\\parse.js:196:18)\n    at js_error (E:\\xampp\\htdocs\\nddk\\node_modules\\grunt-contrib-uglify\\node_modules\\uglify-js\\lib\\parse.js:204:11)\n    at croak (E:\\xampp\\htdocs\\nddk\\node_modules\\grunt-contrib-uglify\\node_modules\\uglify-js\\lib\\parse.js:678:41)\n    at token_error (E:\\xampp\\htdocs\\nddk\\node_modules\\grunt-contrib-uglify\\node_modules\\uglify-js\\lib\\parse.js:682:9)\n    at expect_token (E:\\xampp\\htdocs\\nddk\\node_modules\\grunt-contrib-uglify\\node_modules\\uglify-js\\lib\\parse.js:695:9)\n    at expect (E:\\xampp\\htdocs\\nddk\\node_modules\\grunt-contrib-uglify\\node_modules\\uglify-js\\lib\\parse.js:698:36)\n    at E:\\xampp\\htdocs\\nddk\\node_modules\\grunt-contrib-uglify\\node_modules\\uglify-js\\lib\\parse.js:963:52\n    at function_ (E:\\xampp\\htdocs\\nddk\\node_modules\\grunt-contrib-uglify\\node_modules\\uglify-js\\lib\\parse.js:968:15)\n    at expr_atom (E:\\xampp\\htdocs\\nddk\\node_modules\\grunt-contrib-uglify\\node_modules\\uglify-js\\lib\\parse.js:1187:24)\n    at maybe_unary (E:\\xampp\\htdocs\\nddk\\node_modules\\grunt-contrib-uglify\\node_modules\\uglify-js\\lib\\parse.js:1357:19)' }
[31m>> [39mUglifying source .tmp/concat/scripts/scripts.js failed.
[33mWarning: Uglification failed.
Unexpected token name «CONSTANT», expected punc «,». 
Line 375 in .tmp/concat/scripts/scripts.js
 [4mUsed --force, continuing.[24m[39m
[33mWarning: Cannot read property 'min' of undefined [4mUsed --force, continuing.[24m[39m

[4mRunning "filerev:dist" (filerev) task[24m
✔ public/scripts/vendor.js changed to vendor.65c75efc.js
✔ public/styles/main.css changed to main.a711cd54.css
✔ public/styles/vendor.css changed to vendor.1aecc740.css
✔ public/images/DNG6&7_NDDK_MuaSam.jpg changed to DNG6&7_NDDK_MuaSam.b0ad150c.jpg
✔ public/images/front/Untitled-1.jpg changed to Untitled-1.9d32af4a.jpg
✔ public/images/front/ajax-loader-lar.gif changed to ajax-loader-lar.5b170907.gif
✔ public/images/front/arrow-bt-ri-hover.png changed to arrow-bt-ri-hover.fa7573fa.png
✔ public/images/front/arrow-bt-ri.png changed to arrow-bt-ri.61758757.png
✔ public/images/front/arrow-language.png changed to arrow-language.49b0fc49.png
✔ public/images/front/arrow-menu-hover.png changed to arrow-menu-hover.331754ae.png
✔ public/images/front/arrow-menu.png changed to arrow-menu.da5713e2.png
✔ public/images/front/bdl-bg.png changed to bdl-bg.edaba2f5.png
✔ public/images/front/bdlr-bg.png changed to bdlr-bg.8c48ef5a.png
✔ public/images/front/bdr-bg.png changed to bdr-bg.a19cb2c7.png
✔ public/images/front/bg-ads.png changed to bg-ads.6137c4da.png
✔ public/images/front/bg-arrow-tg.jpg changed to bg-arrow-tg.74a35de0.jpg
✔ public/images/front/bg-boxshadown.png changed to bg-boxshadown.787672f8.png
✔ public/images/front/bg-dot-01.jpg changed to bg-dot-01.22901825.jpg
✔ public/images/front/bg-dot-02.png changed to bg-dot-02.d6b5ec34.png
✔ public/images/front/bg-feedback.png changed to bg-feedback.2d4c41b3.png
✔ public/images/front/bg-like.png changed to bg-like.25eeff1a.png
✔ public/images/front/bg-location.png changed to bg-location.db0ab7d9.png
✔ public/images/front/bg-login.png changed to bg-login.2f889ec5.png
✔ public/images/front/bg-opacity-01.png changed to bg-opacity-01.22a81145.png
✔ public/images/front/bg-overlay.png changed to bg-overlay.a06ba6a6.png
✔ public/images/front/bg-score.png changed to bg-score.def62b5b.png
✔ public/images/front/bg-sear.png changed to bg-sear.1824d50b.png
✔ public/images/front/bg-sprite-map.png changed to bg-sprite-map.02faadb8.png
✔ public/images/front/bg-tab.png changed to bg-tab.f3f7b146.png
✔ public/images/front/bt-nav.png changed to bt-nav.63ef4a40.png
✔ public/images/front/controls.png changed to controls.2d208cf8.png
✔ public/images/front/edit-icon.png changed to edit-icon.7ded13d4.png
✔ public/images/front/flag_united_kingdom.png changed to flag_united_kingdom.01472fd7.png
✔ public/images/front/flag_vietnam.png changed to flag_vietnam.3c03eaf8.png
✔ public/images/front/icoin-desc.png changed to icoin-desc.c822c6e1.png
✔ public/images/front/icon-atm.png changed to icon-atm.82564fef.png
✔ public/images/front/icon-attractions.png changed to icon-attractions.7c4cdb4d.png
✔ public/images/front/icon-bar-pub.png changed to icon-bar-pub.45b8ea31.png
✔ public/images/front/icon-breakcum.png changed to icon-breakcum.3bce6307.png
✔ public/images/front/icon-bus.png changed to icon-bus.4474dccb.png
✔ public/images/front/icon-cafe.png changed to icon-cafe.a20feff9.png
✔ public/images/front/icon-cuisine.png changed to icon-cuisine.45067a04.png
✔ public/images/front/icon-diagram.png changed to icon-diagram.3bc2fa9c.png
✔ public/images/front/icon-education.png changed to icon-education.292d88f7.png
✔ public/images/front/icon-finance.png changed to icon-finance.8ee86750.png
✔ public/images/front/icon-gas-station.png changed to icon-gas-station.fe64669b.png
✔ public/images/front/icon-health.png changed to icon-health.def58146.png
✔ public/images/front/icon-home.png changed to icon-home.ba62e4dc.png
✔ public/images/front/icon-hotel.png changed to icon-hotel.e4a02677.png
✔ public/images/front/icon-lock.png changed to icon-lock.075abf1a.png
✔ public/images/front/icon-login.png changed to icon-login.c81a9159.png
✔ public/images/front/icon-organize.png changed to icon-organize.9e200a57.png
✔ public/images/front/icon-relax.png changed to icon-relax.9193d0ff.png
✔ public/images/front/icon-restaurent.png changed to icon-restaurent.995c12af.png
✔ public/images/front/icon-salon.png changed to icon-salon.b662f697.png
✔ public/images/front/icon-search.png changed to icon-search.9aa8f719.png
✔ public/images/front/icon-service.png changed to icon-service.91ddad17.png
✔ public/images/front/icon-shopping.png changed to icon-shopping.2d9f62ee.png
✔ public/images/front/icon-sport.png changed to icon-sport.4c1ba41a.png
✔ public/images/front/icon-travel.png changed to icon-travel.c7eabe53.png
✔ public/images/front/icon-user.png changed to icon-user.41333f07.png
✔ public/images/front/img-menu.jpg changed to img-menu.32f01862.jpg
✔ public/images/front/logo.png changed to logo.1756dd9e.png
✔ public/images/front/logo_login.png changed to logo_login.3f62e2a4.png
✔ public/images/front/minimal.png changed to minimal.bd6df481.png
✔ public/images/front/minimal@2x.png changed to minimal@2x.336f4510.png
✔ public/images/front/social.png changed to social.e2996243.png
✔ public/images/front/sprite.png changed to sprite.ce723e54.png
✔ public/images/front/weather.png changed to weather.81607962.png
✔ public/images/gallery/img-album-0.jpg changed to img-album-0.c5c9b6d1.jpg
✔ public/images/gallery/img-album-1.jpg changed to img-album-1.2c2f5407.jpg
✔ public/images/gallery/img-lar-1.jpg changed to img-lar-1.c5c9b6d1.jpg
✔ public/images/gallery/img-tb-1.jpg changed to img-tb-1.2c2f5407.jpg
✔ public/images/gallery/img-tb-2.jpg changed to img-tb-2.4c3b37a4.jpg
✔ public/images/gallery/img-tb-3.jpg changed to img-tb-3.8cbb9b43.jpg
✔ public/images/gallery/img-tb-4.jpg changed to img-tb-4.6a8fa91b.jpg
✔ public/images/gallery/img-tb-5.jpg changed to img-tb-5.3ddbaba9.jpg
✔ public/images/gallery/img-tb-6.jpg changed to img-tb-6.0fb3b43e.jpg
✔ public/images/gallery/img-tb-7.jpg changed to img-tb-7.f8de5d53.jpg
✔ public/images/gallery/img-tb-8.jpg changed to img-tb-8.7eade378.jpg
✔ public/images/glyphicons-halflings-white.png changed to glyphicons-halflings-white.9f84acdf.png
✔ public/images/glyphicons-halflings.png changed to glyphicons-halflings.c6302637.png
✔ public/images/images/ad-01.jpg changed to ad-01.a979eb0f.jpg
✔ public/images/images/ad-02.jpg changed to ad-02.19d88ad4.jpg
✔ public/images/images/ad-03.jpg changed to ad-03.7e714895.jpg
✔ public/images/images/ad-04.jpg changed to ad-04.670e93d0.jpg
✔ public/images/images/ad-05.jpg changed to ad-05.f7be0b08.jpg
✔ public/images/images/article-01.jpg changed to article-01.62acddfc.jpg
✔ public/images/images/article-02.jpg changed to article-02.3c284c38.jpg
✔ public/images/images/article-03.jpg changed to article-03.e7f8e56a.jpg
✔ public/images/images/article-04.jpg changed to article-04.fe526fc9.jpg
✔ public/images/images/article-05.jpg changed to article-05.a6409e65.jpg
✔ public/images/images/article-06.jpg changed to article-06.d405270b.jpg
✔ public/images/images/article-07.jpg changed to article-07.d8b3deb5.jpg
✔ public/images/images/article-detail-01.jpg changed to article-detail-01.90516fc9.jpg
✔ public/images/images/article-detail-02.jpg changed to article-detail-02.15fb788b.jpg
✔ public/images/images/avatar-01.jpg changed to avatar-01.73bb69f6.jpg
✔ public/images/images/avatar-02.jpg changed to avatar-02.b3cf8cdf.jpg
✔ public/images/images/avatar-03.jpg changed to avatar-03.8190ba4e.jpg
✔ public/images/images/avatar-hd.jpg changed to avatar-hd.0dda5741.jpg
✔ public/images/images/avatar-profile.jpg changed to avatar-profile.898c293a.jpg
✔ public/images/images/avatar=default.jpg changed to avatar=default.898c293a.jpg
✔ public/images/images/img-_39.jpg changed to img-_39.dc3c5bf0.jpg
✔ public/images/images/img-_44.jpg changed to img-_44.cf377d14.jpg
✔ public/images/images/img-_46.jpg changed to img-_46.b9acb462.jpg
✔ public/images/images/img-_48.jpg changed to img-_48.fd666796.jpg
✔ public/images/images/img-ab-1.jpg changed to img-ab-1.eb1d319d.jpg
✔ public/images/images/img-ab-2.jpg changed to img-ab-2.b8c82161.jpg
✔ public/images/images/img-ab-3.jpg changed to img-ab-3.bc8a5412.jpg
✔ public/images/images/img-ab-4.jpg changed to img-ab-4.63c92a5f.jpg
✔ public/images/images/img-ab-5.jpg changed to img-ab-5.95b2c824.jpg
✔ public/images/images/img-ab-6.jpg changed to img-ab-6.73d36d5c.jpg
✔ public/images/images/img-ads.jpg changed to img-ads.c679ea08.jpg
✔ public/images/images/img-advertising-1.jpg changed to img-advertising-1.e745ce81.jpg
✔ public/images/images/img-advertising-2.jpg changed to img-advertising-2.6d91ebe3.jpg
✔ public/images/images/img-advertising-3.jpg changed to img-advertising-3.fff14d06.jpg
✔ public/images/images/img-avatar-1.jpg changed to img-avatar-1.ab9eb7cd.jpg
✔ public/images/images/img-avatar-2.jpg changed to img-avatar-2.c51fa295.jpg
✔ public/images/images/img-avatar.jpg changed to img-avatar.a5ff450c.jpg
✔ public/images/images/img-booking.jpg changed to img-booking.655f6f6f.jpg
✔ public/images/images/img-comment.jpg changed to img-comment.074c83ca.jpg
✔ public/images/images/img-event-by.jpg changed to img-event-by.23c252f1.jpg
✔ public/images/images/img-face.jpg changed to img-face.5ce60f21.jpg
✔ public/images/images/img-folo-1.jpg changed to img-folo-1.57d7c83a.jpg
✔ public/images/images/img-folo-2.jpg changed to img-folo-2.4ee36ff5.jpg
✔ public/images/images/img-folo-3.jpg changed to img-folo-3.e435a9a3.jpg
✔ public/images/images/img-folo-4.jpg changed to img-folo-4.69d4b762.jpg
✔ public/images/images/img-folo-5.jpg changed to img-folo-5.0087503f.jpg
✔ public/images/images/img-gr.jpg changed to img-gr.309f53ea.jpg
✔ public/images/images/img-intro.jpg changed to img-intro.c5c9b6d1.jpg
✔ public/images/images/img-jcar-1.jpg changed to img-jcar-1.6ea9b589.jpg
✔ public/images/images/img-jcar-2.jpg changed to img-jcar-2.6a789bda.jpg
✔ public/images/images/img-jcar-3.jpg changed to img-jcar-3.89e602ef.jpg
✔ public/images/images/img-jcar-4.jpg changed to img-jcar-4.045edd27.jpg
✔ public/images/images/img-jcar-5.jpg changed to img-jcar-5.a4536af5.jpg
✔ public/images/images/img-jcar-6.jpg changed to img-jcar-6.d42ccb3d.jpg
✔ public/images/images/img-jcar-7.jpg changed to img-jcar-7.95fa8113.jpg
✔ public/images/images/img-jcar-8.jpg changed to img-jcar-8.8362d88c.jpg
✔ public/images/images/img-jcar-9.jpg changed to img-jcar-9.adb79497.jpg
✔ public/images/images/img-km-1.jpg changed to img-km-1.53603a1e.jpg
✔ public/images/images/img-km-2.jpg changed to img-km-2.6bbb02da.jpg
✔ public/images/images/img-km-3.jpg changed to img-km-3.f57e191b.jpg
✔ public/images/images/img-km-4.jpg changed to img-km-4.36fd0661.jpg
✔ public/images/images/img-km-5.jpg changed to img-km-5.ad73b8cf.jpg
✔ public/images/images/img-km.jpg changed to img-km.328021d4.jpg
✔ public/images/images/img-kmlt.jpg changed to img-kmlt.804a24c0.jpg
✔ public/images/images/img-lager-01.jpg changed to img-lager-01.c12b46ed.jpg
✔ public/images/images/img-lager-02.jpg changed to img-lager-02.ef2e0472.jpg
✔ public/images/images/img-lager-03.jpg changed to img-lager-03.88300286.jpg
✔ public/images/images/img-lager-04.jpg changed to img-lager-04.86000c37.jpg
✔ public/images/images/img-lager-05.jpg changed to img-lager-05.6354364a.jpg
✔ public/images/images/img-lager-06.jpg changed to img-lager-06.5a7c3428.jpg
✔ public/images/images/img-lg-google.png changed to img-lg-google.d1863c5c.png
✔ public/images/images/img-location.jpg changed to img-location.b93406ae.jpg
✔ public/images/images/img-lst-1.jpg changed to img-lst-1.d502e817.jpg
✔ public/images/images/img-lst-2.jpg changed to img-lst-2.98e1b70c.jpg
✔ public/images/images/img-lst-3.jpg changed to img-lst-3.1c51ea2e.jpg
✔ public/images/images/img-lst-dn-1.jpg changed to img-lst-dn-1.537e48a4.jpg
✔ public/images/images/img-lst-dn-2.jpg changed to img-lst-dn-2.946b0cbd.jpg
✔ public/images/images/img-lst-dn-3.jpg changed to img-lst-dn-3.e3b9572d.jpg
✔ public/images/images/img-lst-dn-4.jpg changed to img-lst-dn-4.1aefefd2.jpg
✔ public/images/images/img-lst-dn-5.jpg changed to img-lst-dn-5.4f74b8a5.jpg
✔ public/images/images/img-lt.jpg changed to img-lt.9d19f282.jpg
✔ public/images/images/img-map.jpg changed to img-map.380d3912.jpg
✔ public/images/images/img-menu.jpg changed to img-menu.32f01862.jpg
✔ public/images/images/img-new-01.jpg changed to img-new-01.8a0b4e5a.jpg
✔ public/images/images/img-new-02.jpg changed to img-new-02.b37e5804.jpg
✔ public/images/images/img-new-03.jpg changed to img-new-03.231b902f.jpg
✔ public/images/images/img-new-aside.jpg changed to img-new-aside.5c01d5b1.jpg
✔ public/images/images/img-news-1.jpg changed to img-news-1.d097c996.jpg
✔ public/images/images/img-news-2.jpg changed to img-news-2.950968dc.jpg
✔ public/images/images/img-news-3.jpg changed to img-news-3.5a729737.jpg
✔ public/images/images/img-news-4.jpg changed to img-news-4.caec1d8d.jpg
✔ public/images/images/img-news-69x48-01.jpg changed to img-news-69x48-01.dcdb7af9.jpg
✔ public/images/images/img-news-69x48-02.jpg changed to img-news-69x48-02.5f1f6069.jpg
✔ public/images/images/img-news-69x48-03.jpg changed to img-news-69x48-03.eb763297.jpg
✔ public/images/images/img-news-69x48-04.jpg changed to img-news-69x48-04.4507742e.jpg
✔ public/images/images/img-news-69x48-05.jpg changed to img-news-69x48-05.db153efb.jpg
✔ public/images/images/img-news-hot-02.jpg changed to img-news-hot-02.4671ee3c.jpg
✔ public/images/images/img-news-hot.jpg changed to img-news-hot.4a750899.jpg
✔ public/images/images/img-news-st-01.jpg changed to img-news-st-01.6171414e.jpg
✔ public/images/images/img-news-st-02.jpg changed to img-news-st-02.aff8b261.jpg
✔ public/images/images/img-news-st-03.jpg changed to img-news-st-03.f299b30d.jpg
✔ public/images/images/img-offer.jpg changed to img-offer.0f0b5e89.jpg
✔ public/images/images/img-overview.jpg changed to img-overview.32f01862.jpg
✔ public/images/images/img-pp-slider.jpg changed to img-pp-slider.0f0b5e89.jpg
✔ public/images/images/img-qcl.jpg changed to img-qcl.3cf1350d.jpg
✔ public/images/images/img-qcr.jpg changed to img-qcr.2d3f2be4.jpg
✔ public/images/images/img-reply.jpg changed to img-reply.211a0c33.jpg
✔ public/images/images/img-sea.jpg changed to img-sea.da2e7260.jpg
✔ public/images/images/img-service.jpg changed to img-service.9d19f282.jpg
✔ public/images/images/img-share-1.jpg changed to img-share-1.6ffb8c34.jpg
✔ public/images/images/img-share-2.jpg changed to img-share-2.9e7193f6.jpg
✔ public/images/images/img-share-3.jpg changed to img-share-3.713a310a.jpg
✔ public/images/images/img-share.jpg changed to img-share.8649f1f8.jpg
✔ public/images/images/img-shopping-1.jpg changed to img-shopping-1.4b50b0bc.jpg
✔ public/images/images/img-shopping-2.jpg changed to img-shopping-2.3e94a6a9.jpg
✔ public/images/images/img-shopping-3.jpg changed to img-shopping-3.47ec8b7c.jpg
✔ public/images/images/img-shopping-4.jpg changed to img-shopping-4.42e17c76.jpg
✔ public/images/images/img-shopping-5.jpg changed to img-shopping-5.013f8e0d.jpg
✔ public/images/images/img-shopping-6.jpg changed to img-shopping-6.ce2a28a8.jpg
✔ public/images/images/img-shopping-7.jpg changed to img-shopping-7.d93387de.jpg
✔ public/images/images/img-shopping-8.jpg changed to img-shopping-8.8491af75.jpg
✔ public/images/images/img-shopping-9.jpg changed to img-shopping-9.c6f1b555.jpg
✔ public/images/images/img-shopping.jpg changed to img-shopping.839bdabd.jpg
✔ public/images/images/img-social.jpg changed to img-social.fe96af5f.jpg
✔ public/images/images/img-tab-1.jpg changed to img-tab-1.299e5de9.jpg
✔ public/images/images/img-tab-2.jpg changed to img-tab-2.7e36de38.jpg
✔ public/images/images/img-tab-3.jpg changed to img-tab-3.89a964d7.jpg
✔ public/images/images/img-tb-1.jpg changed to img-tb-1.f6333626.jpg
✔ public/images/images/img-tb-2.jpg changed to img-tb-2.bd23afef.jpg
✔ public/images/images/img-tb-3.jpg changed to img-tb-3.390dbc3e.jpg
✔ public/images/images/img-tbfo-1.jpg changed to img-tbfo-1.f0cce6ed.jpg
✔ public/images/images/img-tbfo-2.jpg changed to img-tbfo-2.52345291.jpg
✔ public/images/images/img-tbfo-3.jpg changed to img-tbfo-3.780786fc.jpg
✔ public/images/images/img-tbfo-4.jpg changed to img-tbfo-4.cb1b5c47.jpg
✔ public/images/images/img-tbfo-5.jpg changed to img-tbfo-5.83bc8b21.jpg
✔ public/images/images/img-tbfo-6.jpg changed to img-tbfo-6.24ec6320.jpg
✔ public/images/images/img-thumb-01.jpg changed to img-thumb-01.7490d5d4.jpg
✔ public/images/images/img-thumb-02.jpg changed to img-thumb-02.0b5eab2d.jpg
✔ public/images/images/img-thumb-03.jpg changed to img-thumb-03.3b93a3e5.jpg
✔ public/images/images/img-thumb-04.jpg changed to img-thumb-04.c6cfb685.jpg
✔ public/images/images/img-thumb-05.jpg changed to img-thumb-05.697d6b78.jpg
✔ public/images/images/img-thumb-06.jpg changed to img-thumb-06.560479cf.jpg
✔ public/images/images/img-thumb-1.jpg changed to img-thumb-1.f69de26a.jpg
✔ public/images/images/img-thumb-2.jpg changed to img-thumb-2.5efae12a.jpg
✔ public/images/images/img-thumb-3.jpg changed to img-thumb-3.327bce7a.jpg
✔ public/images/images/img-thumb-4.jpg changed to img-thumb-4.c835b938.jpg
✔ public/images/images/img-thumb-5.jpg changed to img-thumb-5.b7e71cdd.jpg
✔ public/images/images/img-thumb-6.jpg changed to img-thumb-6.52307b69.jpg
✔ public/images/images/img-thumb-7.jpg changed to img-thumb-7.9a86a20a.jpg
✔ public/images/images/img-thumb-8.jpg changed to img-thumb-8.2a9c138c.jpg
✔ public/images/images/img-thumb-9.jpg changed to img-thumb-9.cf5a529a.jpg
✔ public/images/images/img-tmk.jpg changed to img-tmk.c1fc79c8.jpg
✔ public/images/images/img-unde.jpg changed to img-unde.bcbae797.jpg
✔ public/images/images/img-up-1.jpg changed to img-up-1.4e249174.jpg
✔ public/images/images/img-up-2.jpg changed to img-up-2.18508a61.jpg
✔ public/images/images/img-victoria.jpg changed to img-victoria.4ead22f9.jpg
✔ public/images/images/img-video-1.jpg changed to img-video-1.991d43b2.jpg
✔ public/images/images/img-video-2.jpg changed to img-video-2.a20a34e7.jpg
✔ public/images/images/img-video-3.jpg changed to img-video-3.ebfd8917.jpg
✔ public/images/images/img-video-4.jpg changed to img-video-4.42e3c065.jpg
✔ public/images/images/img-video-5.jpg changed to img-video-5.e543caa6.jpg
✔ public/images/images/img-video.jpg changed to img-video.64970466.jpg
✔ public/images/images/item-new-1.jpg changed to item-new-1.942c4d39.jpg
✔ public/images/images/item-new-2.jpg changed to item-new-2.ab0ff845.jpg
✔ public/images/images/item-new-3.jpg changed to item-new-3.beb04614.jpg
✔ public/images/images/item-new-4.jpg changed to item-new-4.d6e1e860.jpg
✔ public/images/images/login-fae-en.jpg changed to login-fae-en.84993d58.jpg
✔ public/images/images/login-fae.jpg changed to login-fae.60800677.jpg
✔ public/images/images/login-twitter.jpg changed to login-twitter.8cf85962.jpg
✔ public/images/images/map.jpg changed to map.1a218579.jpg
✔ public/images/images/thumb-map-01.jpg changed to thumb-map-01.10ecc5e3.jpg
✔ public/images/imgUI/ui-bg_flat_0_999999_40x100.png changed to ui-bg_flat_0_999999_40x100.205aa2cd.png
✔ public/images/imgUI/ui-bg_flat_0_aaaaaa_40x100.png changed to ui-bg_flat_0_aaaaaa_40x100.4f4c4b5e.png
✔ public/images/imgUI/ui-bg_glass_55_fbf9ee_1x400.png changed to ui-bg_glass_55_fbf9ee_1x400.e0287b01.png
✔ public/images/imgUI/ui-bg_glass_65_ffffff_1x400.png changed to ui-bg_glass_65_ffffff_1x400.a313f7ce.png
✔ public/images/imgUI/ui-bg_glass_75_dadada_1x400.png changed to ui-bg_glass_75_dadada_1x400.55af1ee2.png
✔ public/images/imgUI/ui-bg_glass_75_e6e6e6_1x400.png changed to ui-bg_glass_75_e6e6e6_1x400.39d61325.png
✔ public/images/imgUI/ui-bg_glass_75_ffffff_1x400.png changed to ui-bg_glass_75_ffffff_1x400.345a28d4.png
✔ public/images/imgUI/ui-bg_highlight-soft_75_cccccc_1x100.png changed to ui-bg_highlight-soft_75_cccccc_1x100.fe992a0a.png
✔ public/images/imgUI/ui-bg_inset-soft_95_fef1ec_1x100.png changed to ui-bg_inset-soft_95_fef1ec_1x100.0f9d9fef.png
✔ public/images/imgUI/ui-icons_222222_256x240.png changed to ui-icons_222222_256x240.43dbc090.png
✔ public/images/imgUI/ui-icons_2e83ff_256x240.png changed to ui-icons_2e83ff_256x240.060350a1.png
✔ public/images/imgUI/ui-icons_428bca_256x240.png changed to ui-icons_428bca_256x240.e21e98ff.png
✔ public/images/imgUI/ui-icons_454545_256x240.png changed to ui-icons_454545_256x240.56cd8e84.png
✔ public/images/imgUI/ui-icons_555555_256x240.png changed to ui-icons_555555_256x240.a6e76f32.png
✔ public/images/imgUI/ui-icons_888888_256x240.png changed to ui-icons_888888_256x240.991f0a23.png
✔ public/images/imgUI/ui-icons_999999_256x240.png changed to ui-icons_999999_256x240.8cb80da7.png
✔ public/images/imgUI/ui-icons_cd0a0a_256x240.png changed to ui-icons_cd0a0a_256x240.9ddd674f.png
✔ public/images/imgUI/ui-icons_f0ad4e_256x240.png changed to ui-icons_f0ad4e_256x240.b55582e1.png
✔ public/images/imgUI/ui-icons_f6cf3b_256x240.png changed to ui-icons_f6cf3b_256x240.91a48f1d.png
✔ public/images/imgUI/ui-icons_ffffff_256x240.png changed to ui-icons_ffffff_256x240.aef24193.png
✔ public/images/sliders/img-sliders-1.jpg changed to img-sliders-1.bd4bac97.jpg
✔ public/images/sliders/img-sliders-2.jpg changed to img-sliders-2.0b79b055.jpg
✔ public/images/yeoman.png changed to yeoman.a6b33b1c.png

[4mRunning "usemin:html" (usemin) task[24m
Replaced 9 references to assets

[4mRunning "usemin:css" (usemin) task[24m
Replaced 2 references to assets

[4mRunning "htmlmin:dist" (htmlmin) task[24m
Minified public/404.html 3.69 kB → 3.52 kB
Minified public/index.html 1.87 kB → 1.64 kB
Minified public/views/about.html 1.35 kB → 1.16 kB
Minified public/views/aboutDetail.html 2.38 kB → 2.01 kB
Minified public/views/aboutTopic.html 2.65 kB → 2.24 kB
Minified public/views/footer.html 436 B → 386 B
Minified public/views/header.html 5.99 kB → 4.16 kB
Minified public/views/home.html 15.5 kB → 9.85 kB
Minified public/views/news.html 6.38 kB → 5.34 kB
Minified public/views/partials/hotDestinations.html 1.63 kB → 1.41 kB
Minified public/views/partials/lastestNews.html 805 B → 683 B

[31mDone, but with warnings.[39m


Execution Time (2015-03-16 12:06:54 UTC)
wiredep:app         1.2s  ■ 2%
concurrent:dist    20.6s  ■■■■■■■■■■■■■■■ 33%
autoprefixer:dist  820ms  ■ 1%
copy:dist          672ms  ■ 1%
cdnify:dist          27s  ■■■■■■■■■■■■■■■■■■■ 43%
uglify:generated   10.3s  ■■■■■■■■ 16%
filerev:dist       677ms  ■ 1%
Total 1m 2.8s

